…
<a href="https://tibble.tidyverse.org/">
<img src="/_img/hex-stickers/tibble.webp" width="120" style="float: right;">
</a>

- **巨大データをうっかり表示しても画面を埋め尽くさない**
- 列の名前や型を勝手に変更しない
- 一応説明したけど、この先は区別せずdata.frameと呼ぶ


```r
as_tibble(iris)
```

```
# A tibble: 150 x 5
  Sepal.Length Sepal.Width Petal.Length Petal.Width Species
         <dbl>       <dbl>        <dbl>       <dbl> <fct>  
1          5.1         3.5          1.4         0.2 setosa 
2          4.9         3            1.4         0.2 setosa 
3          4.7         3.2          1.3         0.2 setosa 
4          4.6         3.1          1.5         0.2 setosa 
5          5           3.6          1.4         0.2 setosa 
6          5.4         3.9          1.7         0.4 setosa 
7          4.6         3.4          1.4         0.3 setosa 
8          5           3.4          1.5         0.2 setosa 
# ... with 142 more rows
```
…
- 生data.frameではなく安全なtibbleとして読んでくれる
- 列の名前や型を勝手に変更しない
- オプションをごちゃごちゃ付けなくてもいい感じに動く<br>
  (R標準の `read.table()` とかは意外と難しい)


```r
readr::write_tsv(iris, "iris.tsv")
readr::read_tsv("iris.tsv")
```

```
# A tibble: 150 x 5
  Sepal.Length Sepal.Width Petal.Length Petal.Width Species
         <dbl>       <dbl>        <dbl>       <dbl> <chr>  
1          5.1         3.5          1.4         0.2 setosa 
2          4.9         3            1.4         0.2 setosa 
3          4.7         3.2          1.3         0.2 setosa 
4          4.6         3.1          1.5         0.2 setosa 
5          5           3.6          1.4         0.2 setosa 
6          5.4         3.9          1.7         0.4 setosa 
7          4.6         3.4          1.4         0.3 setosa 
8          5           3.4          1.5         0.2 setosa 
# ... with 142 more rows
```
…
```
      Species     data
       <fctr>   <list>
1:     setosa <tbl_df>
2: versicolor <tbl_df>
3:  virginica <tbl_df>
```

```r
nested_iris$data[[1L]]
```

```
# A tibble: 50 x 4
  Sepal.Length Sepal.Width Petal.Length Petal.Width
         <dbl>       <dbl>        <dbl>       <dbl>
1          5.1         3.5          1.4         0.2
2          4.9         3            1.4         0.2
3          4.7         3.2          1.3         0.2
4          4.6         3.1          1.5         0.2
5          5           3.6          1.4         0.2
6          5.4         3.9          1.7         0.4
7          4.6         3.4          1.4         0.3
8          5           3.4          1.5         0.2
# ... with 42 more rows
```
…
