nagoya2018-3: データ整形
…
グループ毎にdata.frameを区切ってlist型の列に入れる。

nested_iris = iris %>%
  as_tibble() %>%
  tidyr::nest(-Species) %>% print()

      Species     data
       <fctr>   <list>
1:     setosa <tbl_df>
2: versicolor <tbl_df>
3:  virginica <tbl_df>

nested_iris$data[[1L]]

# A tibble: 50 x 4
  Sepal.Length Sepal.Width Petal.Length Petal.Width
         <dbl>       <dbl>        <dbl>       <dbl>
1          5.1         3.5          1.4         0.2
2          4.9         3            1.4         0.2
3          4.7         3.2          1.3         0.2
4          4.6         3.1          1.5         0.2
5          5           3.6          1.4         0.2
6          5.4         3.9          1.7         0.4
7          4.6         3.4          1.4         0.3
8          5           3.4          1.5         0.2
# ... with 42 more rows
…
# それぞれ読んで、1つのdata.frameに結合
purrr::map_dfr(files, readr::read_tsv)

例題: anscombe

4組のx-yは、平均・分散・相関係数がほぼ同じ？

anscombe %>%
  tibble::rownames_to_column("id")       # あとで必要なID列
  # xやyの値が何列にも広がってる。これを1列に(縦長に)したい

# A tibble: 11 x 9
  id       x1    x2    x3    x4    y1    y2    y3    y4
  <chr> <dbl> <dbl> <dbl> <dbl> <dbl> <dbl> <dbl> <dbl>
1 1        10    10    10     8  8.04  9.14  7.46  6.58
2 2         8     8     8     8  6.95  8.14  6.77  5.76
3 3        13    13    13     8  7.58  8.74 12.7   7.71
4 4         9     9     9     8  8.81  8.77  7.11  8.84
5 5        11    11    11     8  8.33  9.26  7.81  8.47
6 6        14    14    14     8  9.96  8.1   8.84  7.04
7 7         6     6     6     8  7.24  6.13  6.08  5.25
8 8         4     4     4    19  4.26  3.1   5.39 12.5 
# ... with 3 more rows

例題: anscombe

4組のx-yは、平均・分散・相関係数がほぼ同じ？

anscombe %>%
  tibble::rownames_to_column("id") %>%   # あとで必要なID列
  tidyr::gather(key, value, -id)         # 縦長に変形
  # key列の x1 とかを x, 1 の2列に分離したい

# A tibble: 88 x 3
  id    key   value
  <chr> <chr> <dbl>
1 1     x1       10
2 2     x1        8
3 3     x1       13
4 4     x1        9
5 5     x1       11
6 6     x1       14
7 7     x1        6
8 8     x1        4
# ... with 80 more rows

例題: anscombe

4組のx-yは、平均・分散・相関係数がほぼ同じ？

anscombe %>%
  tibble::rownames_to_column("id") %>%   # あとで必要なID列
  tidyr::gather(key, value, -id) %>%     # 縦長に変形
  tidyr::separate(key, c("axis", "group"), 1L)      # 列を分離
  # xとyのペアが1行になってほしい
  # xとyが新たな列名になるように横長にしたい

# A tibble: 88 x 4
  id    axis  group value
  <chr> <chr> <chr> <dbl>
1 1     x     1        10
2 2     x     1         8
3 3     x     1        13
4 4     x     1         9
5 5     x     1        11
6 6     x     1        14
7 7     x     1         6
8 8     x     1         4
# ... with 80 more rows

例題: anscombe

4組のx-yは、平均・分散・相関係数がほぼ同じ？

anscombe %>%
  tibble::rownames_to_column("id") %>%   # あとで必要なID列
  tidyr::gather(key, value, -id) %>%     # 縦長に変形
  tidyr::separate(key, c("axis", "group"), 1L) %>%  # 列を分離
  tidyr::spread(axis, value)             # axis列をx列とy列に

# A tibble: 44 x 4
  id    group     x     y
  <chr> <chr> <dbl> <dbl>
1 1     1        10  8.04
2 1     2        10  9.14
3 1     3        10  7.46
4 1     4         8  6.58
5 10    1         7  4.82
6 10    2         7  7.26
7 10    3         7  6.42
8 10    4         8  7.91
# ... with 36 more rows
…
